simulation/qsim/milestone1.msim.vcd
$comment
	File created using the following command:
		vcd file milestone1.msim.vcd -direction
$end
$date
	Tue Oct 01 20:48:55 2024
$end
$version
	ModelSim Version 10.1d
$end
$timescale
	1ps
$end
$scope module milestone1_vlg_vec_tst $end
$var reg 1 ! clk_i $end
$var reg 1 " dime_i $end
$var reg 1 # nickel_i $end
$var reg 1 $ quarter_i $end
$var wire 1 % change_o [2] $end
$var wire 1 & change_o [1] $end
$var wire 1 ' change_o [0] $end
$var wire 1 ( soda_o $end
$var wire 1 ) sampler $end
$scope module i1 $end
$var wire 1 * gnd $end
$var wire 1 + vcc $end
$var wire 1 , unknown $end
$var tri1 1 - devclrn $end
$var tri1 1 . devpor $end
$var tri1 1 / devoe $end
$var wire 1 0 pre_soda_o~0_combout $end
$var wire 1 1 change_o[0]~output_o $end
$var wire 1 2 change_o[1]~output_o $end
$var wire 1 3 change_o[2]~output_o $end
$var wire 1 4 soda_o~output_o $end
$var wire 1 5 clk_i~input_o $end
$var wire 1 6 clk_i~inputclkctrl_outclk $end
$var wire 1 7 dime_i~input_o $end
$var wire 1 8 nickel_i~input_o $end
$var wire 1 9 Selector0~0_combout $end
$var wire 1 : Selector6~1_combout $end
$var wire 1 ; Selector1~0_combout $end
$var wire 1 < state.S5~q $end
$var wire 1 = Selector0~1_combout $end
$var wire 1 > Selector0~2_combout $end
$var wire 1 ? state.S0~q $end
$var wire 1 @ Selector2~0_combout $end
$var wire 1 A Selector2~1_combout $end
$var wire 1 B state.S10~q $end
$var wire 1 C Selector3~0_combout $end
$var wire 1 D Selector3~1_combout $end
$var wire 1 E state.S15~q $end
$var wire 1 F Selector5~0_combout $end
$var wire 1 G Selector5~1_combout $end
$var wire 1 H change_o[0]~reg0_q $end
$var wire 1 I quarter_i~input_o $end
$var wire 1 J Selector4~0_combout $end
$var wire 1 K change_o[1]~reg0_q $end
$var wire 1 L pre_change_o[2]~0_combout $end
$var wire 1 M change_o[2]~reg0_q $end
$var wire 1 N Selector6~0_combout $end
$var wire 1 O Selector6~2_combout $end
$var wire 1 P Selector6~3_combout $end
$var wire 1 Q soda_o~reg0_q $end
$upscope $end
$upscope $end
$enddefinitions $end
#0
$dumpvars
1!
0"
0#
0$
0'
0&
0%
0(
x)
0*
1+
x,
1-
1.
1/
00
01
02
03
04
15
16
07
08
19
0:
0;
0<
1=
0>
0?
0@
0A
0B
0C
0D
0E
0F
0G
0H
0I
0J
0K
0L
0M
0N
0O
0P
0Q
$end
#10000
0!
05
06
0)
#20000
1#
1!
18
15
16
1)
1;
09
10
1>
#30000
0!
05
06
0)
#40000
1!
15
16
1)
1?
1<
1@
0=
0;
1A
#50000
0!
05
06
0)
#60000
1$
0#
1!
1I
08
15
16
1)
1N
1=
0@
19
1P
0>
0A
1J
1B
0<
1O
1F
0N
0=
1G
#70000
0!
05
06
0)
#80000
1"
0$
1!
17
0I
15
16
1)
0F
09
0J
0G
0B
0?
1Q
1K
1H
0O
1@
1=
14
12
11
1(
1&
1'
0P
1>
1A
#90000
0!
05
06
0)
#100000
0"
1!
07
15
16
1)
0@
19
00
0A
0>
1B
1?
0Q
0K
0H
1A
0=
04
02
01
0(
0&
0'
1>
#110000
0!
05
06
0)
#120000
1$
1!
1I
15
16
1)
1O
1J
1F
10
1P
0>
1G
0A
#130000
0!
05
06
0)
#140000
0$
1!
0I
15
16
1)
0O
0J
0F
00
0P
1>
0G
1A
0B
0?
1Q
1K
1H
0A
1=
14
12
11
1(
1&
1'
0>
#150000
0!
05
06
0)
#160000
1#
1!
18
15
16
1)
1;
09
10
1>
0Q
0K
0H
04
02
01
0(
0&
0'
#170000
0!
05
06
0)
#180000
1"
0#
1!
17
08
15
16
1)
1@
0;
1A
1?
1<
0@
0=
1C
0A
1D
#190000
0!
05
06
0)
#200000
1$
0"
1!
1I
07
15
16
1)
1N
1=
0C
19
1P
0>
0D
1J
1E
0<
1L
0J
1:
0N
0=
#210000
0!
05
06
0)
#220000
0$
1!
0I
15
16
1)
0L
0:
00
0P
1>
1D
0E
0?
1Q
1M
0D
1=
14
13
1(
1%
0>
#230000
0!
05
06
0)
#240000
1!
15
16
1)
0Q
0M
04
03
0(
0%
#250000
0!
05
06
0)
#260000
1!
15
16
1)
#270000
0!
05
06
0)
#280000
1!
15
16
1)
#290000
0!
05
06
0)
#300000
1!
15
16
1)
#310000
0!
05
06
0)
#320000
1!
15
16
1)
#330000
0!
05
06
0)
#340000
1!
15
16
1)
#350000
0!
05
06
0)
#360000
1!
15
16
1)
#370000
0!
05
06
0)
#380000
1!
15
16
1)
#390000
0!
05
06
0)
#400000
1!
15
16
1)
#410000
0!
05
06
0)
#420000
1!
15
16
1)
#430000
0!
05
06
0)
#440000
1!
15
16
1)
#450000
0!
05
06
0)
#460000
1!
15
16
1)
#470000
0!
05
06
0)
#480000
1!
15
16
1)
#490000
0!
05
06
0)
#500000
1!
15
16
1)
#510000
0!
05
06
0)
#520000
1!
15
16
1)
#530000
0!
05
06
0)
#540000
1!
15
16
1)
#550000
0!
05
06
0)
#560000
1!
15
16
1)
#570000
0!
05
06
0)
#580000
1!
15
16
1)
#590000
0!
05
06
0)
#600000
1!
15
16
1)
#610000
0!
05
06
0)
#620000
1!
15
16
1)
#630000
0!
05
06
0)
#640000
1!
15
16
1)
#650000
0!
05
06
0)
#660000
1!
15
16
1)
#670000
0!
05
06
0)
#680000
1!
15
16
1)
#690000
0!
05
06
0)
#700000
1!
15
16
1)
#710000
0!
05
06
0)
#720000
1!
15
16
1)
#730000
0!
05
06
0)
#740000
1!
15
16
1)
#750000
0!
05
06
0)
#760000
1!
15
16
1)
#770000
0!
05
06
0)
#780000
1!
15
16
1)
#790000
0!
05
06
0)
#800000
1!
15
16
1)
#810000
0!
05
06
0)
#820000
1!
15
16
1)
#830000
0!
05
06
0)
#840000
1!
15
16
1)
#850000
0!
05
06
0)
#860000
1!
15
16
1)
#870000
0!
05
06
0)
#880000
1!
15
16
1)
#890000
0!
05
06
0)
#900000
1!
15
16
1)
#910000
0!
05
06
0)
#920000
1!
15
16
1)
#930000
0!
05
06
0)
#940000
1!
15
16
1)
#950000
0!
05
06
0)
#960000
1!
15
16
1)
#970000
0!
05
06
0)
#980000
1!
15
16
1)
#990000
0!
05
06
0)
